D:\Mezzo\Project\settlementservice\src\main\java\com\mezzo\settlementservice\main\Main.java
D:\Mezzo\Project\settlementservice\src\main\java\com\mezzo\settlementservice\util\HexaToDouble.java
D:\Mezzo\Project\settlementservice\src\main\java\com\mezzo\settlementservice\util\HibernateUtil.java
D:\Mezzo\Project\settlementservice\src\main\java\com\mezzo\settlementservice\service\TransactionServiceImpl.java
D:\Mezzo\Project\settlementservice\src\main\java\com\mezzo\settlementservice\thread\MezzoSettlementServiceThreadDetail.java
D:\Mezzo\Project\settlementservice\src\main\java\com\mezzo\settlementservice\util\JSON.java
D:\Mezzo\Project\settlementservice\src\main\java\com\mezzo\settlementservice\model\MSIssuers.java
D:\Mezzo\Project\settlementservice\src\main\java\com\mezzo\settlementservice\thread\MezzoSettlementServiceThread.java
D:\Mezzo\Project\settlementservice\src\main\java\com\mezzo\settlementservice\util\GlobalUtil.java
D:\Mezzo\Project\settlementservice\src\main\java\com\mezzo\settlementservice\model\TRUploadSettlementLogs.java
D:\Mezzo\Project\settlementservice\src\main\java\com\mezzo\settlementservice\model\MSMerchants.java
D:\Mezzo\Project\settlementservice\src\main\java\com\mezzo\settlementservice\model\TRUploadSettlementLogsDetail.java
