D:\BBW\AG Prepaid Host\Workspace\APISimulator\src\main\java\com\apiservice\simulator\utility\AES.java
D:\BBW\AG Prepaid Host\Workspace\APISimulator\src\main\java\com\apiservice\simulator\utility\EncryptorUtility.java
D:\BBW\AG Prepaid Host\Workspace\APISimulator\src\main\java\com\apiservice\simulator\utility\SessionIdGenerator.java
D:\BBW\AG Prepaid Host\Workspace\APISimulator\src\main\java\com\apiservice\simulator\controller\altopay\vamaybank\AltoPayAdminSwitching.java
D:\BBW\AG Prepaid Host\Workspace\APISimulator\src\main\java\com\apiservice\simulator\controller\CampaignController.java
D:\BBW\AG Prepaid Host\Workspace\APISimulator\src\main\java\com\apiservice\simulator\Application.java
D:\BBW\AG Prepaid Host\Workspace\APISimulator\src\main\java\com\apiservice\simulator\utility\FormValidator.java
D:\BBW\AG Prepaid Host\Workspace\APISimulator\src\main\java\com\apiservice\simulator\utility\SOAP.java
D:\BBW\AG Prepaid Host\Workspace\APISimulator\src\main\java\com\apiservice\simulator\utility\JSON.java
D:\BBW\AG Prepaid Host\Workspace\APISimulator\src\main\java\com\apiservice\simulator\utility\Utility.java
